{
  "$schema": "http://json-schema.org/draft-07/schema#",
  "description": "Policy content for pipeline_execution_schedule_policy type",
  "type": "object",
  "properties": {
    "content": {
      "description": "Specifies the content of custom configuration.",
      "type": "object",
      "properties": {
        "include": {
          "type": "array",
          "maxItems": 1,
          "minItems": 1,
          "items": {
            "type": "object",
            "properties": {
              "project": {
                "type": "string"
              },
              "file": {
                "type": "string"
              },
              "ref": {
                "type": "string"
              }
            },
            "required": [
              "project",
              "file"
            ],
            "additionalProperties": false
          }
        }
      },
      "required": [
        "include"
      ],
      "additionalProperties": false
    },
    "schedules": {
      "type": "array",
      "minItems": 1,
      "maxItems": 5,
      "items": {
        "oneOf": [
          {
            "type": "object",
            "properties": {
              "type": {
                "type": "string",
                "enum": [
                  "daily"
                ]
              },
              "start_time": {
                "type": "string",
                "description": "HH:mm format",
                "pattern": "^(0[0-9]|1[0-9]|2[0-3]):[0-5][0-9]$"
              },
              "time_window": {
                "type": "object",
                "properties": {
                  "value": {
                    "type": "integer",
                    "minimum": 3600,
                    "maximum": 259200
                  },
                  "distribution": {
                    "type": "string",
                    "enum": [
                      "random"
                    ]
                  }
                },
                "required": [
                  "value",
                  "distribution"
                ],
                "additionalProperties": false
              },
              "timezone": {
                "type": "string",
                "description": "IANA timezone identifier",
                "default": "UTC"
              }
            },
            "required": [
              "type",
              "start_time",
              "time_window"
            ],
            "additionalProperties": false
          },
          {
            "type": "object",
            "properties": {
              "type": {
                "type": "string",
                "enum": [
                  "weekly"
                ]
              },
              "days": {
                "type": "array",
                "items": {
                  "type": "string",
                  "enum": [
                    "Monday",
                    "Tuesday",
                    "Wednesday",
                    "Thursday",
                    "Friday",
                    "Saturday",
                    "Sunday"
                  ]
                },
                "description": "List of days, e.g. ['Monday', 'Friday']"
              },
              "start_time": {
                "type": "string",
                "description": "HH:mm format",
                "pattern": "^(0[0-9]|1[0-9]|2[0-3]):[0-5][0-9]$"
              },
              "time_window": {
                "type": "object",
                "properties": {
                  "value": {
                    "type": "integer",
                    "minimum": 3600,
                    "maximum": 259200
                  },
                  "distribution": {
                    "type": "string",
                    "enum": [
                      "random"
                    ]
                  }
                },
                "required": [
                  "value",
                  "distribution"
                ],
                "additionalProperties": false
              },
              "timezone": {
                "type": "string",
                "description": "IANA timezone identifier",
                "default": "UTC"
              }
            },
            "required": [
              "type",
              "days",
              "start_time",
              "time_window"
            ],
            "additionalProperties": false
          },
          {
            "type": "object",
            "properties": {
              "type": {
                "type": "string",
                "enum": [
                  "monthly"
                ]
              },
              "days_of_month": {
                "type": "array",
                "items": {
                  "type": "integer",
                  "minimum": 1,
                  "maximum": 31
                },
                "description": "Dates within the month, e.g. [3, 10, 17]"
              },
              "start_time": {
                "type": "string",
                "description": "HH:mm format",
                "pattern": "^(0[0-9]|1[0-9]|2[0-3]):[0-5][0-9]$"
              },
              "time_window": {
                "type": "object",
                "properties": {
                  "value": {
                    "type": "integer",
                    "minimum": 3600,
                    "maximum": 259200
                  },
                  "distribution": {
                    "type": "string",
                    "enum": [
                      "random"
                    ]
                  }
                },
                "required": [
                  "value",
                  "distribution"
                ],
                "additionalProperties": false
              },
              "timezone": {
                "type": "string",
                "description": "IANA timezone identifier",
                "default": "UTC"
              }
            },
            "required": [
              "type",
              "days_of_month",
              "start_time",
              "time_window"
            ],
            "additionalProperties": false
          }
        ]
      }
    }
  },
  "additionalProperties": false
}
